Raum123, t123123001, TESTRAUM002, 2, true
1212, 00011, 1, 1, true
Hinteres Buero, E1, Viel Platz; Whiteboard, 2, true
Zweiter von rechts, E2, Groß; warm; bunt, 10, true
testraum, t1, jj, 2, true
2000000, 10, test, 1, true
